6.833379e-01
69
0	0.319579	0.03125	0	0.683345	-0.968941	0	1	1.90707e-12	0	0	0	0	0	0
1	0.00499343	0.0078125	-0.162939	0	-0.977459	1.19689	0	-0.170166	0	0	0	0	0	0
2	0.00499343	0.0078125	0.166292	0	-0.977229	-1.1736	0	-0.105931	0	0	0	0	0	0
3	0.00499343	0.0078125	-0.21018	0	-0.960065	1.27251	0	-0.301452	0	0	0	0	0	0
4	0.00499343	0.0078125	0.201572	0	-0.963536	-1.32348	0	-0.450099	0	0	0	0	0	0
5	0.00499343	0.0078125	-0.228476	0	-0.95654	1.36654	0	-0.234228	0	-4.76544e-06	0	0	-3.04791e-05	0
6	0.00499343	0.0078125	0.22112	0	-0.95834	-1.36047	0	-0.371788	0	0	0	0	0	0
7	0.00499343	0.0078125	-0.24415	0	-0.953132	1.33475	0	-0.256667	0	-4.76544e-06	0	0	-3.04791e-05	0
8	0.00499343	0.0078125	0.258222	0	-0.955011	-1.28584	0	0.044277	0	0	0	0	0	0
9	0.00499343	0.0078125	-0.287475	0	-0.937714	1.63255	0	-1.57995	0	0	0	0	0	0
10	0.00499343	0.0078125	0.295711	0	-0.924585	-1.60778	0	-1.47132	0	0	0	0	0	0
11	0.00499343	0.0078125	-0.310298	0	-0.922324	1.65953	0	-1.51222	0	0	0	0	0	0
12	0.00499343	0.0078125	0.314338	0	-0.91609	-1.64816	0	-1.45646	0	0	0	0	0	0
13	0.00499343	0.0078125	-0.35124	0	-0.879335	1.68468	0	-1.1534	0	-2.50333e-06	0	0	-3.09353e-05	0
14	0.00499343	0.0078125	0.332173	0	-0.909715	-1.69158	0	-1.46846	0	0	0	0	0	0
15	0.00499343	0.0078125	-0.37014	0	-0.880776	1.62285	0	-1.247	0	-2.50333e-06	0	0	-3.09353e-05	0
16	0.00499343	0.0078125	0.379129	0	-0.86601	-1.6462	0	-1.06635	0	0	0	0	0	0
17	0.00499343	0.0078125	-0.414837	0	-0.844193	1.63301	0	-0.816147	0	0	0	0	0	0
18	0.00499343	0.0078125	0.39745	0	-0.86064	-1.69459	0	-1.0972	0	0	0	0	0	0
19	0.00499343	0.0078125	-0.439871	0	-0.834274	1.66047	0	-0.748807	0	0	0	0	0	0
20	0.00499343	0.0078125	0.432073	0	-0.839878	-1.68902	0	-0.881107	0	0	0	0	0	0
21	0.00499343	0.0078125	-0.473084	0	-0.82121	1.65706	0	-0.542099	0	0	0	0	0	0
22	0.00499343	0.0078125	0.478948	0	-0.819822	-1.63185	0	-0.428189	0	0	0	0	0	0
23	0.00499343	0.0078125	-0.508891	0	-0.812922	1.64114	0	-0.278663	0	0	0	0	0	0
24	0.00499343	0.0078125	0.51546	0	-0.814962	-1.60759	0	-0.1327	0	0	0	0	0	0
25	0.00499343	0.0078125	-0.54546	0	-0.812846	1.61524	0	0.0245474	0	0	0	0	0	0
26	0.00499343	0.0078125	0.539834	0	-0.808623	-1.64657	0	-0.112772	0	0	0	0	0	0
27	0.00499343	0.0078125	-0.564489	0	-0.801272	1.68668	0	-0.104963	0	0	0	0	0	0
28	0.00499343	0.0078125	0.5743	0	-0.810262	-1.71439	0	-2.17131	0	0	0	0	0	0
29	0.00499343	0.0078125	-0.594007	0	-0.753255	1	0	-3.84241	0	0	0	0	0	0
30	0.00499343	0.0078125	0.594007	0	-0.730989	-1	0	-3.78537	0	0	0	0	0	0
31	0.00499343	0.0078125	-0.613541	0	-0.643406	1	0	-3.55211	0	0	0	0	0	0
32	0.00499343	0.0078125	0.613541	0	-0.654392	-1	0	-3.58174	0	0	0	0	0	0
33	0.00499343	0.0078125	-0.633074	0	-0.62141	1	0	-3.49026	0	0	0	0	0	0
34	0.00499343	0.0078125	0.633074	0	-0.636515	-1	0	-3.53325	0	0	0	0	0	0
35	0.00499343	0.0078125	-0.652601	0	-0.523697	1	0	-3.20417	0	0	0	0	0	0
36	0.00499343	0.0078125	0.652601	0	-0.55076	-1	0	-3.28574	0	0	0	0	0	0
37	0.00499343	0.0078125	-0.672135	0	-0.469438	1	0	-3.03343	0	0	0	0	0	0
38	0.00499343	0.0078125	0.672135	0	-0.461708	-1	0	-3.00867	0	0	0	0	0	0
39	0.00499343	0.0078125	-0.691668	0	-0.391072	1	0	-2.77032	0	0	0	0	0	0
40	0.00499343	0.0078125	0.691668	0	-0.427702	-1	0	-2.89546	0	0	0	0	0	0
41	0.00499343	0.0078125	-0.711195	0	-0.379494	1	0	-2.72776	0	0	0	0	0	0
42	0.00499343	0.0078125	0.711195	0	-0.339309	-1	0	-2.58065	0	0	0	0	0	0
43	0.00499343	0.0078125	-0.730729	0	-0.303953	1	0	-2.4412	0	0	0	0	0	0
44	0.00499343	0.0078125	0.730729	0	-0.302396	-1	0	-2.43506	0	0	0	0	0	0
45	0.00499343	0.0078125	-0.750262	0	-0.261469	1	0	-2.264	0	0	0	0	0	0
46	0.00499343	0.0078125	0.750262	0	-0.288571	-1	0	-2.37977	0	0	0	0	0	0
47	0.00499343	0.0078125	-0.769789	0	-0.219982	1	0	-2.07662	0	0	0	0	0	0
48	0.00499343	0.0078125	0.769789	0	-0.209121	-1	0	-2.026	0	0	0	0	0	0
49	0.00499343	0.0078125	-0.789323	0	-0.195289	1	0	-1.95697	0	0	0	0	0	0
50	0.00499343	0.0078125	0.789323	0	-0.188903	-1	0	-1.92423	0	0	0	0	0	0
51	0.00499343	0.0078125	-0.808856	0	-0.141599	1	0	-1.66679	0	0	0	0	0	0
52	0.00499343	0.0078125	0.808856	0	-0.151735	-1	0	-1.72454	0	0	0	0	0	0
53	0.00499343	0.0078125	-0.828383	0	-0.127415	1	0	-1.58117	0	0	0	0	0	0
54	0.00499343	0.0078125	0.828383	0	-0.126257	-1	0	-1.57374	0	0	0	0	0	0
55	0.00499343	0.0078125	-0.847917	0	-0.0950834	1	0	-1.36544	0	0	0	0	0	0
56	0.00499343	0.0078125	0.847917	0	-0.100344	-1	0	-1.40399	0	0	0	0	0	0
57	0.00499343	0.0078125	-0.86745	0	-0.0673053	1	0	-1.14856	0	0	0	0	0	0
58	0.00499343	0.0078125	0.86745	0	-0.0576908	-1	0	-1.06633	0	0	0	0	0	0
59	0.00499343	0.0078125	-0.886977	0	-0.0385121	1	0	-0.87266	0	0	0	0	0	0
60	0.00499343	0.0078125	0.886977	0	-0.0550434	-1	0	-1.04239	0	0	0	0	0	0
61	0.00499343	0.0078125	-0.90651	0	-0.0234065	1	0	-0.682142	0	0	0	0	0	0
62	0.00499343	0.0078125	0.90651	0	-0.0296377	-1	0	-0.762168	0	0	0	0	0	0
63	0.00499343	0.0078125	-0.926042	0	-0.0164836	1	0	-0.568409	0	0	0	0	0	0
64	0.00499343	0.0078125	0.926042	0	-0.018785	-1	0	-0.607861	0	0	0	0	0	0
65	0.00499343	0.0078125	-0.945575	0	-0.00360026	1	0	-0.28291	0	0	0	0	0	0
66	0.00499343	0.0078125	0.945575	0	-0.00742333	-1	0	-0.381443	0	0	0	0	0	0
67	0.00499343	0.0078125	-0.965102	0	-0.00272154	1	0	-0.235647	0	0	0	0	0	0
68	0.00499343	0.0078125	0.965102	0	-0.00339769	-1	0	-0.27073	0	0	0	0	0	0
